{
  "swagger": "2.0",
  "info": {
    "version": "1.0.0",
    "title": "News API",
    "description": "Get breaking news headlines, and search for articles from over 5,000 news sources and blogs with our news API"
  },
  "host": "https://newsapi.org",
  "schemes": [
    "https"
  ],
  "basePath": "/v2",
  "paths": {
    "/everything": {
      "get": {
        "description": "Gets information news from News API",
        "parameters": [
          {
            "name": "q",
            "in": "query",
            "description": "Parameter for search the news",
            "required": false,
            "type": "string"
          },
          {
            "name": "from",
            "in": "query",
            "description": "A date and optional time for the oldest article allowed.",
            "required": false,
            "type": "string",
            "classAnnotation": "rdfs:XMLLITERAL",
            "propertyAnnotation": "http://dbpedia.org/ontology/date"
          },
          {
            "name": "to",
            "in": "query",
            "description": "A date and optional time for the newest article allowed.",
            "required": true,
            "type": "string",
            "classAnnotation": "rdfs:XMLLITERAL",
            "propertyAnnotation": "http://dbpedia.org/ontology/date"
          }
        ],
        "responses": {
          "200": {
            "description": "Successful response",
            "schema": {
              "type": "object",
              "properties": {
                "news": {
                  "$ref": "#/definitions/news"
                }
              }
            }
          }
        }
      }
    }
  },
  "definitions": {
    "news": {
      "type": "object",
      "description": "Object with information about news.",
      "properties": {
        "title": {
          "type": "string",
          "description": "Title of news",
          "classAnnotation": "rdfs:XMLLITERAL",
          "propertyAnnotation": "http://dbpedia.org/ontology/title"
        },
        "publishedAt": {
          "type": "string",
          "description": "Date publication",
          "classAnnotation": "rdfs:XMLLITERAL",
          "propertyAnnotation": "http://dbpedia.org/ontology/date"
        },
        "description": {
          "type": "string",
          "description": "Description of news",
          "propertyAnnotation": "http://dbpedia.org/ontology/description",
          "classAnnotation": "rdfs:XMLLITERAL"
        },
        "urlToImage": {
          "type": "string",
          "description": "Image of news",
          "classAnnotation": "http://dbpedia.org/ontology/Image",
          "propertyAnnotation": "http://dbpedia.org/ontology/Image"
        },
        "author": {
          "type": "string",
          "description": "Author of news",
          "classAnnotation": "rdfs:XMLLITERAL",
          "propertyAnnotation": "http://dbpedia.org/ontology/author"
        }
      }
    }
  }
}