{
  "swagger": "2.0",
  "info": {
    "title": "World Weather Online",
    "version": "1.0.0"
  },
  "host": "api.worldweatheronline.com",
  "schemes": [
    "http",
    "https"
  ],
  "basePath": "/premium/v1",
  "produces": [
    "application/json"
  ],
  "paths": {
    "/products": {
      "get": {
        "summary": "Product Types",
        "description": "The Marine Weather API returns weather elements such as temperature, precipitation (rainfall), weather description, weather icon, wind speed",
        "parameters": [
          {
            "name": "latitude",
            "in": "query",
            "description": "Latitude component of location.",
            "required": true,
            "type": "number",
            "format": "double",
            "propertyAnnotation": "http://dbpedia.org/property/latitude",
            "classAnnotation": "rdfs:XMLLITERAL"
          },
          {
            "name": "longitude",
            "in": "query",
            "description": "Longitude component of location.",
            "required": true,
            "type": "number",
            "format": null,
            "propertyAnnotation": "http://dbpedia.org/property/longitude",
            "classAnnotation": "rdfs:XMLLITERAL"
          }
        ],
        "tags": [
          "weather",
          "marine"
        ],
        "responses": {
          "200": {
            "description": "Successful response",
            "title": "data",
            "schema": {
              "type": "object",
              "properties": {
                "weather": {
                  "type": "object",
                  "propertyAnnotation": null,
                  "classAnnotation": "http://live.dbpedia.org/page/Weather",
                  "properties": {
                    "date": {
                      "type": "date",
                      "propertyAnnotation": "http://dbpedia.org/ontology/date",
                      "classAnnotation": "xsd:date"
                    },
                    "astronomy": {
                      "type": "object",
                      "propertyAnnotation": "prop",
                      "classAnnotation": "class",
                      "properties": {
                        "sunrise": {
                          "type": "string",
                          "propertyAnnotation": "prop",
                          "classAnnotation": "class"
                        },
                        "sunset": {
                          "type": "string",
                          "propertyAnnotation": "prop",
                          "classAnnotation": "class"
                        },
                        "moonrise": {
                          "type": "string",
                          "propertyAnnotation": "prop",
                          "classAnnotation": "class"
                        },
                        "moonset": {
                          "type": "string",
                          "propertyAnnotation": "prop",
                          "classAnnotation": "class"
                        }
                      }
                    },
                    "maxtempC": {
                      "type": "number",
                      "propertyAnnotation": "prop",
                      "classAnnotation": "class"
                    },
                    "maxtempF": {
                      "type": "number",
                      "propertyAnnotation": "prop",
                      "classAnnotation": "class"
                    },
                    "mintempC": {
                      "type": "number",
                      "propertyAnnotation": "prop",
                      "classAnnotation": "class"
                    },
                    "mintempF": {
                      "type": "number",
                      "propertyAnnotation": "prop",
                      "classAnnotation": "class"
                    },
                    "hourly": {
                      "type": "array",
                      "items": {
                        "$ref": "#/definitions/Hour",
                        "propertyAnnotation": "prop",
                        "classAnnotation": "class"
                      }
                    }
                  }
                }
              }
            }
          }
        }
      }
    }
  },
  "definitions": {
    "Hour": {
      "type": "object",
      "properties": {
        "time": {
          "type": "number",
          "propertyAnnotation": "prop",
          "classAnnotation": "class"
        },
        "tempC": {
          "type": "number",
          "propertyAnnotation": "prop",
          "classAnnotation": "class"
        },
        "tempF": {
          "type": "number",
          "propertyAnnotation": "prop",
          "classAnnotation": "class"
        },
        "windspeedMiles": {
          "type": "number",
          "propertyAnnotation": "prop",
          "classAnnotation": "class"
        },
        "windspeedKmph": {
          "type": "number",
          "propertyAnnotation": "prop",
          "classAnnotation": "class"
        },
        "winddirDegree": {
          "type": "number",
          "propertyAnnotation": "prop",
          "classAnnotation": "class"
        },
        "winddir16Point": {
          "type": "string",
          "propertyAnnotation": "prop",
          "classAnnotation": "class"
        },
        "weatherCode": {
          "type": "number",
          "propertyAnnotation": "prop",
          "classAnnotation": "class"
        },
        "weatherIconUrl": {
          "type": "string",
          "propertyAnnotation": "prop",
          "classAnnotation": "class"
        },
        "precipMM": {
          "type": "number",
          "propertyAnnotation": "prop",
          "classAnnotation": "class"
        },
        "humidity": {
          "type": "number",
          "propertyAnnotation": "prop",
          "classAnnotation": "class"
        },
        "visibility": {
          "type": "number",
          "propertyAnnotation": "prop",
          "classAnnotation": "class"
        },
        "pressure": {
          "type": "number",
          "propertyAnnotation": "prop",
          "classAnnotation": "class"
        },
        "cloudcover": {
          "type": "number",
          "propertyAnnotation": "prop",
          "classAnnotation": "class"
        }
      }
    }
  }
}