{
  "swagger": "2.0",
  "schemes": [
    "https"
  ],
  "host": "www.googleapis.com",
  "basePath": "/books/v1",
  "info": {
    "contact": {
      "name": "Google",
      "url": "https://google.com"
    },
    "description": "Searches for books and manages your Google Books library.",
    "license": {
      "name": "Creative Commons Attribution 3.0",
      "url": "http://creativecommons.org/licenses/by/3.0/"
    },
    "termsOfService": "https://developers.google.com/terms/",
    "title": "Books",
    "version": "v1"
  },
  "externalDocs": {
    "url": "https://developers.google.com/books/docs/v1/getting_started"
  },
  "securityDefinitions": {
    "Oauth2": {
      "authorizationUrl": "https://accounts.google.com/o/oauth2/auth",
      "description": "Oauth 2.0 implicit authentication",
      "flow": "implicit",
      "scopes": {
        "https://www.googleapis.com/auth/books": "Manage your books"
      },
      "type": "oauth2"
    },
    "Oauth2c": {
      "authorizationUrl": "https://accounts.google.com/o/oauth2/auth",
      "description": "Oauth 2.0 accessCode authentication",
      "flow": "accessCode",
      "scopes": {
        "https://www.googleapis.com/auth/books": "Manage your books"
      },
      "tokenUrl": "https://accounts.google.com/o/oauth2/token",
      "type": "oauth2"
    }
  },
  "parameters": {
    "alt": {
      "default": "json",
      "description": "Data format for the response.",
      "enum": [
        "json"
      ],
      "in": "query",
      "name": "alt",
      "type": "string"
    },
    "fields": {
      "description": "Selector specifying which fields to include in a partial response.",
      "in": "query",
      "name": "fields",
      "type": "string"
    },
    "key": {
      "description": "API key. Your API key identifies your project and provides you with API access, quota, and reports. Required unless you provide an OAuth 2.0 token.",
      "in": "query",
      "name": "key",
      "type": "string"
    },
    "oauth_token": {
      "description": "OAuth 2.0 token for the current user.",
      "in": "query",
      "name": "oauth_token",
      "type": "string"
    },
    "prettyPrint": {
      "default": true,
      "description": "Returns response with indentations and line breaks.",
      "in": "query",
      "name": "prettyPrint",
      "type": "boolean"
    },
    "quotaUser": {
      "description": "Available to use for quota purposes for server-side applications. Can be any arbitrary string assigned to a user, but should not exceed 40 characters. Overrides userIp if both are provided.",
      "in": "query",
      "name": "quotaUser",
      "type": "string"
    },
    "userIp": {
      "description": "IP address of the site where the request originates. Use this if you want to enforce per-user limits.",
      "in": "query",
      "name": "userIp",
      "type": "string"
    }
  },
  "tags": [
    {
      "name": "bookshelves"
    },
    {
      "name": "cloudloading"
    },
    {
      "name": "dictionary"
    },
    {
      "name": "layers"
    },
    {
      "name": "myconfig"
    },
    {
      "name": "mylibrary"
    },
    {
      "name": "notification"
    },
    {
      "name": "onboarding"
    },
    {
      "name": "personalizedstream"
    },
    {
      "name": "promooffer"
    },
    {
      "name": "series"
    },
    {
      "name": "volumes"
    }
  ],
  "paths": {
    "/volumes": {
      "get": {
        "description": "Performs a book search.",
        "operationId": "books.volumes.list",
        "parameters": [
          {
            "name": "q",
            "in": "query",
            "required": true,
            "type": "string",
            "description": "Full-text search query string."
          },
          {
            "description": "Restrict to volumes by download availability.",
            "enum": [
              "epub"
            ],
            "in": "query",
            "name": "download",
            "type": "string"
          },
          {
            "description": "Filter search results.",
            "enum": [
              "ebooks",
              "free-ebooks",
              "full",
              "paid-ebooks",
              "partial"
            ],
            "in": "query",
            "name": "filter",
            "type": "string"
          },
          {
            "description": "Restrict results to books with this language code.",
            "in": "query",
            "name": "langRestrict",
            "type": "string"
          },
          {
            "description": "Restrict search to this user's library.",
            "enum": [
              "my-library",
              "no-restrict"
            ],
            "in": "query",
            "name": "libraryRestrict",
            "type": "string"
          },
          {
            "description": "The maximum allowed maturity rating of returned recommendations. Books with a higher maturity rating are filtered out.",
            "enum": [
              "mature",
              "not-mature"
            ],
            "in": "query",
            "name": "maxAllowedMaturityRating",
            "type": "string"
          },
          {
            "description": "Maximum number of results to return.",
            "in": "query",
            "maximum": 40,
            "minimum": 0,
            "name": "maxResults",
            "type": "integer"
          },
          {
            "description": "Sort search results.",
            "enum": [
              "newest",
              "relevance"
            ],
            "in": "query",
            "name": "orderBy",
            "type": "string"
          },
          {
            "description": "Restrict and brand results for partner ID.",
            "in": "query",
            "name": "partner",
            "type": "string"
          },
          {
            "description": "Restrict to books or magazines.",
            "enum": [
              "all",
              "books",
              "magazines"
            ],
            "in": "query",
            "name": "printType",
            "type": "string"
          },
          {
            "description": "Restrict information returned to a set of selected fields.",
            "enum": [
              "full",
              "lite"
            ],
            "in": "query",
            "name": "projection",
            "type": "string"
          },
          {
            "description": "Set to true to show books available for preorder. Defaults to false.",
            "in": "query",
            "name": "showPreorders",
            "type": "boolean"
          },
          {
            "description": "String to identify the originator of this request.",
            "in": "query",
            "name": "source",
            "type": "string"
          },
          {
            "description": "Index of the first result to return (starts at 0)",
            "in": "query",
            "minimum": 0,
            "name": "startIndex",
            "type": "integer"
          }
        ],
        "responses": {
          "200": {
            "description": "Successful response",
            "schema": {
              "$ref": "#/definitions/Volumes"
            }
          }
        },
        "security": [
          {
            "Oauth2": [
              "https://www.googleapis.com/auth/books"
            ],
            "Oauth2c": [
              "https://www.googleapis.com/auth/books"
            ]
          }
        ],
        "tags": [
          "volumes"
        ]
      },
      "parameters": [
        {
          "$ref": "#/parameters/alt"
        },
        {
          "$ref": "#/parameters/fields"
        },
        {
          "$ref": "#/parameters/key"
        },
        {
          "$ref": "#/parameters/oauth_token"
        },
        {
          "$ref": "#/parameters/prettyPrint"
        },
        {
          "$ref": "#/parameters/quotaUser"
        },
        {
          "$ref": "#/parameters/userIp"
        }
      ]
    }
  },
  "definitions": {
    "DownloadAccessRestriction": {
      "properties": {
        "deviceAllowed": {
          "description": "If restricted, whether access is granted for this (user, device, volume).",
          "type": "boolean"
        },
        "downloadsAcquired": {
          "description": "If restricted, the number of content download licenses already acquired (including the requesting client, if licensed).",
          "format": "int32",
          "type": "integer"
        },
        "justAcquired": {
          "description": "If deviceAllowed, whether access was just acquired with this request.",
          "type": "boolean"
        },
        "kind": {
          "default": "books#downloadAccessRestriction",
          "description": "Resource type.",
          "type": "string"
        },
        "maxDownloadDevices": {
          "description": "If restricted, the maximum number of content download licenses for this volume.",
          "format": "int32",
          "type": "integer"
        },
        "message": {
          "description": "Error/warning message.",
          "type": "string"
        },
        "nonce": {
          "description": "Client nonce for verification. Download access and client-validation only.",
          "type": "string"
        },
        "reasonCode": {
          "description": "Error/warning reason code. Additional codes may be added in the future. 0 OK 100 ACCESS_DENIED_PUBLISHER_LIMIT 101 ACCESS_DENIED_LIMIT 200 WARNING_USED_LAST_ACCESS",
          "type": "string"
        },
        "restricted": {
          "description": "Whether this volume has any download access restrictions.",
          "type": "boolean"
        },
        "signature": {
          "description": "Response signature.",
          "type": "string"
        },
        "source": {
          "description": "Client app identifier for verification. Download access and client-validation only.",
          "type": "string"
        },
        "volumeId": {
          "description": "Identifies the volume for which this entry applies.",
          "type": "string"
        }
      },
      "type": "object"
    },
    "DownloadAccesses": {
      "properties": {
        "downloadAccessList": {
          "description": "A list of download access responses.",
          "items": {
            "$ref": "#/definitions/DownloadAccessRestriction"
          },
          "type": "array"
        },
        "kind": {
          "default": "books#downloadAccesses",
          "description": "Resource type.",
          "type": "string"
        }
      },
      "type": "object"
    },
    "ReadingPosition": {
      "properties": {
        "epubCfiPosition": {
          "description": "Position in an EPUB as a CFI.",
          "type": "string"
        },
        "gbImagePosition": {
          "description": "Position in a volume for image-based content.",
          "type": "string"
        },
        "gbTextPosition": {
          "description": "Position in a volume for text-based content.",
          "type": "string"
        },
        "kind": {
          "default": "books#readingPosition",
          "description": "Resource type for a reading position.",
          "type": "string"
        },
        "pdfPosition": {
          "description": "Position in a PDF file.",
          "type": "string"
        },
        "updated": {
          "description": "Timestamp when this reading position was last updated (formatted UTC timestamp with millisecond resolution).",
          "format": "date-time",
          "type": "string"
        },
        "volumeId": {
          "description": "Volume id associated with this reading position.",
          "type": "string"
        }
      },
      "type": "object"
    },
    "Review": {
      "properties": {
        "author": {
          "description": "Author of this review.",
          "properties": {
            "displayName": {
              "description": "Name of this person.",
              "type": "string"
            }
          },
          "type": "object"
        },
        "content": {
          "description": "Review text.",
          "type": "string"
        },
        "date": {
          "description": "Date of this review.",
          "type": "string"
        },
        "fullTextUrl": {
          "description": "URL for the full review text, for reviews gathered from the web.",
          "type": "string"
        },
        "kind": {
          "default": "books#review",
          "description": "Resource type for a review.",
          "type": "string"
        },
        "rating": {
          "description": "Star rating for this review. Possible values are ONE, TWO, THREE, FOUR, FIVE or NOT_RATED.",
          "type": "string"
        },
        "source": {
          "description": "Information regarding the source of this review, when the review is not from a Google Books user.",
          "properties": {
            "description": {
              "description": "Name of the source.",
              "type": "string"
            },
            "extraDescription": {
              "description": "Extra text about the source of the review.",
              "type": "string"
            },
            "url": {
              "description": "URL of the source of the review.",
              "type": "string"
            }
          },
          "type": "object"
        },
        "title": {
          "description": "Title for this review.",
          "type": "string"
        },
        "type": {
          "description": "Source type for this review. Possible values are EDITORIAL, WEB_USER or GOOGLE_USER.",
          "type": "string"
        },
        "volumeId": {
          "description": "Volume that this review is for.",
          "type": "string"
        }
      },
      "type": "object"
    },
    "Volume": {
      "properties": {
        "accessInfo": {
          "description": "Any information about a volume related to reading or obtaining that volume text. This information can depend on country (books may be public domain in one country but not in another, e.g.).",
          "properties": {
            "accessViewStatus": {
              "description": "Combines the access and viewability of this volume into a single status field for this user. Values can be FULL_PURCHASED, FULL_PUBLIC_DOMAIN, SAMPLE or NONE. (In LITE projection.)",
              "type": "string"
            },
            "country": {
              "description": "The two-letter ISO_3166-1 country code for which this access information is valid. (In LITE projection.)",
              "type": "string"
            },
            "downloadAccess": {
              "$ref": "#/definitions/DownloadAccessRestriction",
              "description": "Information about a volume's download license access restrictions."
            },
            "driveImportedContentLink": {
              "description": "URL to the Google Drive viewer if this volume is uploaded by the user by selecting the file from Google Drive.",
              "type": "string"
            },
            "embeddable": {
              "description": "Whether this volume can be embedded in a viewport using the Embedded Viewer API.",
              "type": "boolean"
            },
            "epub": {
              "description": "Information about epub content. (In LITE projection.)",
              "properties": {
                "acsTokenLink": {
                  "description": "URL to retrieve ACS token for epub download. (In LITE projection.)",
                  "type": "string"
                },
                "downloadLink": {
                  "description": "URL to download epub. (In LITE projection.)",
                  "type": "string"
                },
                "isAvailable": {
                  "description": "Is a flowing text epub available either as public domain or for purchase. (In LITE projection.)",
                  "type": "boolean"
                }
              },
              "type": "object"
            },
            "explicitOfflineLicenseManagement": {
              "description": "Whether this volume requires that the client explicitly request offline download license rather than have it done automatically when loading the content, if the client supports it.",
              "type": "boolean"
            },
            "pdf": {
              "description": "Information about pdf content. (In LITE projection.)",
              "properties": {
                "acsTokenLink": {
                  "description": "URL to retrieve ACS token for pdf download. (In LITE projection.)",
                  "type": "string"
                },
                "downloadLink": {
                  "description": "URL to download pdf. (In LITE projection.)",
                  "type": "string"
                },
                "isAvailable": {
                  "description": "Is a scanned image pdf available either as public domain or for purchase. (In LITE projection.)",
                  "type": "boolean"
                }
              },
              "type": "object"
            },
            "publicDomain": {
              "description": "Whether or not this book is public domain in the country listed above.",
              "type": "boolean"
            },
            "quoteSharingAllowed": {
              "description": "Whether quote sharing is allowed for this volume.",
              "type": "boolean"
            },
            "textToSpeechPermission": {
              "description": "Whether text-to-speech is permitted for this volume. Values can be ALLOWED, ALLOWED_FOR_ACCESSIBILITY, or NOT_ALLOWED.",
              "type": "string"
            },
            "viewOrderUrl": {
              "description": "For ordered but not yet processed orders, we give a URL that can be used to go to the appropriate Google Wallet page.",
              "type": "string"
            },
            "viewability": {
              "description": "The read access of a volume. Possible values are PARTIAL, ALL_PAGES, NO_PAGES or UNKNOWN. This value depends on the country listed above. A value of PARTIAL means that the publisher has allowed some portion of the volume to be viewed publicly, without purchase. This can apply to eBooks as well as non-eBooks. Public domain books will always have a value of ALL_PAGES.",
              "type": "string"
            },
            "webReaderLink": {
              "description": "URL to read this volume on the Google Books site. Link will not allow users to read non-viewable volumes.",
              "type": "string"
            }
          },
          "type": "object"
        },
        "etag": {
          "description": "Opaque identifier for a specific version of a volume resource. (In LITE projection)",
          "type": "string"
        },
        "id": {
          "description": "Unique identifier for a volume. (In LITE projection.)",
          "type": "string"
        },
        "kind": {
          "default": "books#volume",
          "description": "Resource type for a volume. (In LITE projection.)",
          "type": "string"
        },
        "layerInfo": {
          "description": "What layers exist in this volume and high level information about them.",
          "properties": {
            "layers": {
              "description": "A layer should appear here if and only if the layer exists for this book.",
              "items": {
                "properties": {
                  "layerId": {
                    "description": "The layer id of this layer (e.g. \"geo\").",
                    "type": "string"
                  },
                  "volumeAnnotationsVersion": {
                    "description": "The current version of this layer's volume annotations. Note that this version applies only to the data in the books.layers.volumeAnnotations.* responses. The actual annotation data is versioned separately.",
                    "type": "string"
                  }
                },
                "type": "object"
              },
              "type": "array"
            }
          },
          "type": "object"
        },
        "recommendedInfo": {
          "description": "Recommendation related information for this volume.",
          "properties": {
            "explanation": {
              "description": "A text explaining why this volume is recommended.",
              "type": "string"
            }
          },
          "type": "object"
        },
        "saleInfo": {
          "description": "Any information about a volume related to the eBookstore and/or purchaseability. This information can depend on the country where the request originates from (i.e. books may not be for sale in certain countries).",
          "properties": {
            "buyLink": {
              "description": "URL to purchase this volume on the Google Books site. (In LITE projection)",
              "type": "string"
            },
            "country": {
              "description": "The two-letter ISO_3166-1 country code for which this sale information is valid. (In LITE projection.)",
              "type": "string"
            },
            "isEbook": {
              "description": "Whether or not this volume is an eBook (can be added to the My eBooks shelf).",
              "type": "boolean"
            },
            "listPrice": {
              "description": "Suggested retail price. (In LITE projection.)",
              "properties": {
                "amount": {
                  "description": "Amount in the currency listed below. (In LITE projection.)",
                  "format": "double",
                  "type": "number"
                },
                "currencyCode": {
                  "description": "An ISO 4217, three-letter currency code. (In LITE projection.)",
                  "type": "string"
                }
              },
              "type": "object"
            },
            "offers": {
              "description": "Offers available for this volume (sales and rentals).",
              "items": {
                "properties": {
                  "finskyOfferType": {
                    "description": "The finsky offer type (e.g., PURCHASE=0 RENTAL=3)",
                    "format": "int32",
                    "type": "integer"
                  },
                  "giftable": {
                    "description": "Indicates whether the offer is giftable.",
                    "type": "boolean"
                  },
                  "listPrice": {
                    "description": "Offer list (=undiscounted) price in Micros.",
                    "properties": {
                      "amountInMicros": {
                        "format": "double",
                        "type": "number"
                      },
                      "currencyCode": {
                        "type": "string"
                      }
                    },
                    "type": "object"
                  },
                  "rentalDuration": {
                    "description": "The rental duration (for rental offers only).",
                    "properties": {
                      "count": {
                        "format": "double",
                        "type": "number"
                      },
                      "unit": {
                        "type": "string"
                      }
                    },
                    "type": "object"
                  },
                  "retailPrice": {
                    "description": "Offer retail (=discounted) price in Micros",
                    "properties": {
                      "amountInMicros": {
                        "format": "double",
                        "type": "number"
                      },
                      "currencyCode": {
                        "type": "string"
                      }
                    },
                    "type": "object"
                  }
                },
                "type": "object"
              },
              "type": "array"
            },
            "onSaleDate": {
              "description": "The date on which this book is available for sale.",
              "format": "date-time",
              "type": "string"
            },
            "retailPrice": {
              "description": "The actual selling price of the book. This is the same as the suggested retail or list price unless there are offers or discounts on this volume. (In LITE projection.)",
              "properties": {
                "amount": {
                  "description": "Amount in the currency listed below. (In LITE projection.)",
                  "format": "double",
                  "type": "number"
                },
                "currencyCode": {
                  "description": "An ISO 4217, three-letter currency code. (In LITE projection.)",
                  "type": "string"
                }
              },
              "type": "object"
            },
            "saleability": {
              "description": "Whether or not this book is available for sale or offered for free in the Google eBookstore for the country listed above. Possible values are FOR_SALE, FOR_RENTAL_ONLY, FOR_SALE_AND_RENTAL, FREE, NOT_FOR_SALE, or FOR_PREORDER.",
              "type": "string"
            }
          },
          "type": "object"
        },
        "searchInfo": {
          "description": "Search result information related to this volume.",
          "properties": {
            "textSnippet": {
              "description": "A text snippet containing the search query.",
              "type": "string"
            }
          },
          "type": "object"
        },
        "selfLink": {
          "description": "URL to this resource. (In LITE projection.)",
          "type": "string"
        },
        "userInfo": {
          "description": "User specific information related to this volume. (e.g. page this user last read or whether they purchased this book)",
          "properties": {
            "acquiredTime": {
              "description": "Timestamp when this volume was acquired by the user. (RFC 3339 UTC date-time format) Acquiring includes purchase, user upload, receiving family sharing, etc.",
              "format": "date-time",
              "type": "string"
            },
            "acquisitionType": {
              "description": "How this volume was acquired.",
              "format": "int32",
              "type": "integer"
            },
            "copy": {
              "description": "Copy/Paste accounting information.",
              "properties": {
                "allowedCharacterCount": {
                  "format": "int32",
                  "type": "integer"
                },
                "limitType": {
                  "type": "string"
                },
                "remainingCharacterCount": {
                  "format": "int32",
                  "type": "integer"
                },
                "updated": {
                  "format": "date-time",
                  "type": "string"
                }
              },
              "type": "object"
            },
            "entitlementType": {
              "description": "Whether this volume is purchased, sample, pd download etc.",
              "format": "int32",
              "type": "integer"
            },
            "familySharing": {
              "description": "Information on the ability to share with the family.",
              "properties": {
                "familyRole": {
                  "description": "The role of the user in the family.",
                  "type": "string"
                },
                "isSharingAllowed": {
                  "description": "Whether or not this volume can be shared with the family by the user. This includes sharing eligibility of both the volume and the user. If the value is true, the user can initiate a family sharing action.",
                  "type": "boolean"
                },
                "isSharingDisabledByFop": {
                  "description": "Whether or not sharing this volume is temporarily disabled due to issues with the Family Wallet.",
                  "type": "boolean"
                }
              },
              "type": "object"
            },
            "isFamilySharedFromUser": {
              "description": "Whether or not the user shared this volume with the family.",
              "type": "boolean"
            },
            "isFamilySharedToUser": {
              "description": "Whether or not the user received this volume through family sharing.",
              "type": "boolean"
            },
            "isFamilySharingAllowed": {
              "description": "Deprecated: Replaced by familySharing.",
              "type": "boolean"
            },
            "isFamilySharingDisabledByFop": {
              "description": "Deprecated: Replaced by familySharing.",
              "type": "boolean"
            },
            "isInMyBooks": {
              "description": "Whether or not this volume is currently in \"my books.\"",
              "type": "boolean"
            },
            "isPreordered": {
              "description": "Whether or not this volume was pre-ordered by the authenticated user making the request. (In LITE projection.)",
              "type": "boolean"
            },
            "isPurchased": {
              "description": "Whether or not this volume was purchased by the authenticated user making the request. (In LITE projection.)",
              "type": "boolean"
            },
            "isUploaded": {
              "description": "Whether or not this volume was user uploaded.",
              "type": "boolean"
            },
            "readingPosition": {
              "$ref": "#/definitions/ReadingPosition",
              "description": "The user's current reading position in the volume, if one is available. (In LITE projection.)"
            },
            "rentalPeriod": {
              "description": "Period during this book is/was a valid rental.",
              "properties": {
                "endUtcSec": {
                  "format": "int64",
                  "type": "string"
                },
                "startUtcSec": {
                  "format": "int64",
                  "type": "string"
                }
              },
              "type": "object"
            },
            "rentalState": {
              "description": "Whether this book is an active or an expired rental.",
              "type": "string"
            },
            "review": {
              "$ref": "#/definitions/Review",
              "description": "This user's review of this volume, if one exists."
            },
            "updated": {
              "description": "Timestamp when this volume was last modified by a user action, such as a reading position update, volume purchase or writing a review. (RFC 3339 UTC date-time format).",
              "format": "date-time",
              "type": "string"
            },
            "userUploadedVolumeInfo": {
              "properties": {
                "processingState": {
                  "type": "string"
                }
              },
              "type": "object"
            }
          },
          "type": "object"
        },
        "volumeInfo": {
          "description": "General volume information.",
          "properties": {
            "allowAnonLogging": {
              "description": "Whether anonymous logging should be allowed.",
              "type": "boolean"
            },
            "authors": {
              "description": "The names of the authors and/or editors for this volume. (In LITE projection)",
              "items": {
                "type": "string"
              },
              "type": "array"
            },
            "averageRating": {
              "description": "The mean review rating for this volume. (min = 1.0, max = 5.0)",
              "format": "double",
              "type": "number"
            },
            "canonicalVolumeLink": {
              "description": "Canonical URL for a volume. (In LITE projection.)",
              "type": "string"
            },
            "categories": {
              "description": "A list of subject categories, such as \"Fiction\", \"Suspense\", etc.",
              "items": {
                "type": "string"
              },
              "type": "array"
            },
            "contentVersion": {
              "description": "An identifier for the version of the volume content (text & images). (In LITE projection)",
              "type": "string"
            },
            "description": {
              "description": "A synopsis of the volume. The text of the description is formatted in HTML and includes simple formatting elements, such as b, i, and br tags. (In LITE projection.)",
              "type": "string"
            },
            "dimensions": {
              "description": "Physical dimensions of this volume.",
              "properties": {
                "height": {
                  "description": "Height or length of this volume (in cm).",
                  "type": "string"
                },
                "thickness": {
                  "description": "Thickness of this volume (in cm).",
                  "type": "string"
                },
                "width": {
                  "description": "Width of this volume (in cm).",
                  "type": "string"
                }
              },
              "type": "object"
            },
            "imageLinks": {
              "description": "A list of image links for all the sizes that are available. (In LITE projection.)",
              "properties": {
                "extraLarge": {
                  "description": "Image link for extra large size (width of ~1280 pixels). (In LITE projection)",
                  "type": "string"
                },
                "large": {
                  "description": "Image link for large size (width of ~800 pixels). (In LITE projection)",
                  "type": "string"
                },
                "medium": {
                  "description": "Image link for medium size (width of ~575 pixels). (In LITE projection)",
                  "type": "string"
                },
                "small": {
                  "description": "Image link for small size (width of ~300 pixels). (In LITE projection)",
                  "type": "string"
                },
                "smallThumbnail": {
                  "description": "Image link for small thumbnail size (width of ~80 pixels). (In LITE projection)",
                  "type": "string"
                },
                "thumbnail": {
                  "description": "Image link for thumbnail size (width of ~128 pixels). (In LITE projection)",
                  "type": "string"
                }
              },
              "type": "object"
            },
            "industryIdentifiers": {
              "description": "Industry standard identifiers for this volume.",
              "items": {
                "properties": {
                  "identifier": {
                    "description": "Industry specific volume identifier.",
                    "type": "string"
                  },
                  "type": {
                    "description": "Identifier type. Possible values are ISBN_10, ISBN_13, ISSN and OTHER.",
                    "type": "string"
                  }
                },
                "type": "object"
              },
              "type": "array"
            },
            "infoLink": {
              "description": "URL to view information about this volume on the Google Books site. (In LITE projection)",
              "type": "string"
            },
            "language": {
              "description": "Best language for this volume (based on content). It is the two-letter ISO 639-1 code such as 'fr', 'en', etc.",
              "type": "string"
            },
            "mainCategory": {
              "description": "The main category to which this volume belongs. It will be the category from the categories list returned below that has the highest weight.",
              "type": "string"
            },
            "maturityRating": {
              "type": "string"
            },
            "pageCount": {
              "description": "Total number of pages as per publisher metadata.",
              "format": "int32",
              "type": "integer"
            },
            "panelizationSummary": {
              "description": "A top-level summary of the panelization info in this volume.",
              "properties": {
                "containsEpubBubbles": {
                  "type": "boolean"
                },
                "containsImageBubbles": {
                  "type": "boolean"
                },
                "epubBubbleVersion": {
                  "type": "string"
                },
                "imageBubbleVersion": {
                  "type": "string"
                }
              },
              "type": "object"
            },
            "previewLink": {
              "description": "URL to preview this volume on the Google Books site.",
              "type": "string"
            },
            "printType": {
              "description": "Type of publication of this volume. Possible values are BOOK or MAGAZINE.",
              "type": "string"
            },
            "printedPageCount": {
              "description": "Total number of printed pages in generated pdf representation.",
              "format": "int32",
              "type": "integer"
            },
            "publishedDate": {
              "description": "Date of publication. (In LITE projection.)",
              "type": "string"
            },
            "publisher": {
              "description": "Publisher of this volume. (In LITE projection.)",
              "type": "string"
            },
            "ratingsCount": {
              "description": "The number of review ratings for this volume.",
              "format": "int32",
              "type": "integer"
            },
            "readingModes": {
              "description": "The reading modes available for this volume."
            },
            "samplePageCount": {
              "description": "Total number of sample pages as per publisher metadata.",
              "format": "int32",
              "type": "integer"
            },
            "seriesInfo": {
              "$ref": "#/definitions/Volumeseriesinfo"
            },
            "subtitle": {
              "description": "Volume subtitle. (In LITE projection.)",
              "type": "string"
            },
            "title": {
              "description": "Volume title. (In LITE projection.)",
              "type": "string"
            }
          },
          "type": "object"
        }
      },
      "type": "object"
    },
    "Volumes": {
      "properties": {
        "items": {
          "description": "A list of volumes.",
          "items": {
            "$ref": "#/definitions/Volume"
          },
          "type": "array"
        },
        "kind": {
          "default": "books#volumes",
          "description": "Resource type.",
          "type": "string"
        },
        "totalItems": {
          "description": "Total number of volumes found. This might be greater than the number of volumes returned in this response if results have been paginated.",
          "format": "int32",
          "type": "integer"
        }
      },
      "type": "object"
    },
    "Volumeseriesinfo": {
      "properties": {
        "bookDisplayNumber": {
          "description": "The display number string. This should be used only for display purposes and the actual sequence should be inferred from the below orderNumber.",
          "type": "string"
        },
        "kind": {
          "default": "books#volume_series_info",
          "description": "Resource type.",
          "type": "string"
        },
        "shortSeriesBookTitle": {
          "description": "Short book title in the context of the series.",
          "type": "string"
        },
        "volumeSeries": {
          "items": {
            "properties": {
              "issue": {
                "description": "List of issues. Applicable only for Collection Edition and Omnibus.",
                "items": {
                  "properties": {
                    "issueDisplayNumber": {
                      "type": "string"
                    },
                    "issueOrderNumber": {
                      "format": "int32",
                      "type": "integer"
                    }
                  },
                  "type": "object"
                },
                "type": "array"
              },
              "orderNumber": {
                "description": "The book order number in the series.",
                "format": "int32",
                "type": "integer"
              },
              "seriesBookType": {
                "description": "The book type in the context of series. Examples - Single Issue, Collection Edition, etc.",
                "type": "string"
              },
              "seriesId": {
                "description": "The series id.",
                "type": "string"
              }
            }
          }
        }
      }
    }
  }
}